R Programming for Research
…
Many of the functions in tidyverse packages, including those in dplyr, provide exceptions to the general rule about when to use quotation marks versus when to leave them off. Unfortunately, this may make it a bit hard to learn when to use quotation marks versus when not to. One way to think about this, which is a bit of an oversimplification but can help as you’re learning, is to assume that anytime you’re using a dplyr function, every column in the dataframe you’re working with has been loaded to your R session as its own object.

2.5.2 Selecting columns

Next, you may want to select only some columns of the dataframe. You can use the select function from dplyr to subset the dataframe to certain columns. The basic structure of this command is:

## Generic code
select(dataframe, column_name_1, column_name_2, ...)

In this call, you first specify the dataframe to use and then list all of the column names to include in the output dataframe, with commas between each column name. For example, to select all columns in daily_show except year (since that information is already included in date), run:

select(daily_show, job, date, category, guest_name)

## # A tibble: 2,693 x 4
##    job                date    category guest_name      
##    <chr>              <chr>   <chr>    <chr>           
##  1 actor              1/11/99 Acting   Michael J. Fox  
##  2 Comedian           1/12/99 Comedy   Sandra Bernhard 
##  3 television actress 1/13/99 Acting   Tracey Ullman   
##  4 film actress       1/14/99 Acting   Gillian Anderson
##  5 actor              1/18/99 Acting   David Alan Grier
##  6 actor              1/19/99 Acting   William Baldwin 
##  7 Singer-lyricist    1/20/99 Musician Michael Stipe   
##  8 model              1/21/99 Media    Carmen Electra  
##  9 actor              1/25/99 Acting   Matthew Lillard 
## 10 stand-up comedian  1/26/99 Comedy   David Cross     
## # ... with 2,683 more rows
…
For example, the job column in daily_show sometimes uses upper case and sometimes does not (this call uses the unique function to list only unique values in this column):

head(unique(daily_show$job), 10)

##  [1] "actor"              "Comedian"           "television actress"
##  [4] "film actress"       "Singer-lyricist"    "model"             
##  [7] "stand-up comedian"  "actress"            "comedian"          
## [10] "Singer-songwriter"

To make all the observations in the job column lowercase, use the tolower function within a mutate function:

mutate(daily_show, job = tolower(job))

## # A tibble: 2,693 x 4
##    job                date    category guest_name      
##    <chr>              <chr>   <chr>    <chr>           
##  1 actor              1/11/99 Acting   Michael J. Fox  
##  2 comedian           1/12/99 Comedy   Sandra Bernhard 
##  3 television actress 1/13/99 Acting   Tracey Ullman   
##  4 film actress       1/14/99 Acting   Gillian Anderson
##  5 actor              1/18/99 Acting   David Alan Grier
##  6 actor              1/19/99 Acting   William Baldwin 
##  7 singer-lyricist    1/20/99 Musician Michael Stipe   
##  8 model              1/21/99 Media    Carmen Electra  
##  9 actor              1/25/99 Acting   Matthew Lillard 
## 10 stand-up comedian  1/26/99 Comedy   David Cross     
## # ... with 2,683 more rows
…
