Chapter 6 Entering and cleaning data #2 | R Programming for Research
…
Now we can group by letter and figure out these proportions. First, while the data is
grouped, count the number of names with each letter. Then, ungroup and use mutate
to divide this by the total number of names:

top_letters <- top_letters %>% 
  group_by(first_letter) %>% 
  summarize(n = sum(n)) %>% 
  ungroup() %>% 
  mutate(prop = n / sum(n)) %>% 
  arrange(desc(prop))

top_letters

## # A tibble: 26 x 3
##    first_letter        n   prop
##    <chr>           <int>  <dbl>
##  1 J            44612175 0.128 
##  2 M            32864210 0.0944
##  3 A            28855232 0.0829
##  4 C            25533863 0.0733
##  5 D            24240271 0.0696
##  6 R            23702794 0.0681
##  7 S            21373830 0.0614
##  8 L            18942067 0.0544
##  9 E            17033760 0.0489
## 10 K            17006684 0.0489
## # … with 16 more rows
…
Create the same plot using the names of people in our class. First, create a
vector with the names of people in our class:

student_list <- data_frame(name = c("Aeriel", "Rebecca", "Grant",
                                    "Amy", "Jessy", "Alyssa",
                                    "Camron", "Anastasia", "Kyle",
                                    "Ana", "Amanda", "Kathleen", 
                                    "Kyle", "Ana", "Amanda", "Kathleen",
                                    "Kayla", "Nichole", "Randy", "Katy",
                                    "Devin"))
student_list <- student_list %>% 
  mutate(first_letter = str_sub(name, 1, 1))
student_list

## # A tibble: 21 x 2
##    name      first_letter
##    <chr>     <chr>       
##  1 Aeriel    A           
##  2 Rebecca   R           
##  3 Grant     G           
##  4 Amy       A           
##  5 Jessy     J           
##  6 Alyssa    A           
##  7 Camron    C           
##  8 Anastasia A           
##  9 Kyle      K           
## 10 Ana       A           
## # … with 11 more rows
…
Finally, how does the proportion change over the years in the dataframe? You can start
from the a_or_k dataframe we created earlier. Group by year and the logical
column a_or_k and then calculate the total number of baby names for each
combination of year and a_or_k value. Then ungroup the data, group just by year,
and get the proportion each year. Finally, filter to just the rows where a_or_k
is true and plot how this changes over the years:

a_or_k_year <- a_or_k %>% 
  group_by(year, a_or_k) %>% 
  count()
a_or_k_year

## # A tibble: 276 x 3
## # Groups:   year, a_or_k [276]
##     year a_or_k     n
##    <dbl> <lgl>  <int>
##  1  1880 FALSE   1788
##  2  1880 TRUE     212
##  3  1881 FALSE   1724
##  4  1881 TRUE     211
##  5  1882 FALSE   1904
##  6  1882 TRUE     223
##  7  1883 FALSE   1859
##  8  1883 TRUE     225
##  9  1884 FALSE   2059
## 10  1884 TRUE     238
## # … with 266 more rows

a_or_k_year <- a_or_k_year %>% 
  ungroup() %>% 
  group_by(year) %>% 
  mutate(prop = n / sum(n))
a_or_k_year

## # A tibble: 276 x 4
## # Groups:   year [138]
##     year a_or_k     n  prop
##    <dbl> <lgl>  <int> <dbl>
##  1  1880 FALSE   1788 0.894
##  2  1880 TRUE     212 0.106
##  3  1881 FALSE   1724 0.891
##  4  1881 TRUE     211 0.109
##  5  1882 FALSE   1904 0.895
##  6  1882 TRUE     223 0.105
##  7  1883 FALSE   1859 0.892
##  8  1883 TRUE     225 0.108
##  9  1884 FALSE   2059 0.896
## 10  1884 TRUE     238 0.104
## # … with 266 more rows
…
