R Programming for Research
…
Join the information from state_fips into the accident dataframe. There may be a few locations in the state_fips dataframe that are not included in the accident dataframe (e.g., Virgin Islands), so when you join keep all observations in accident but only the observations in state_fips that match at least one row of accident. The first few rows of the joined dataset should look like this:

## # A tibble: 5 x 6
##   state                date drunk_dr daytime month state_name
##   <int>              <dttm>    <lgl>   <lgl> <dbl>      <chr>
## 1     1 2015-01-01 02:40:00     TRUE   FALSE     1    Alabama
## 2     1 2015-01-01 22:13:00    FALSE   FALSE     1    Alabama
## 3     1 2015-01-01 01:25:00     TRUE   FALSE     1    Alabama
## 4     1 2015-01-04 00:57:00     TRUE   FALSE     1    Alabama
## 5     1 2015-01-07 07:09:00    FALSE    TRUE     1    Alabama

Summarize the data to get the total number of accidents in Colorado in each month, separated by (1) daytime and nighttime and (2) related or unrelated to drunk driving (in other words, in January, how many daytime accidents were there that were unrelated to drunk driving? How many nighttime accidents that were unrelated to drunk driving? etc.). The summarized data should look like this:

## # A tibble: 48 x 4
## # Groups:   daytime, month [?]
##    daytime month drunk_dr accidents
##      <lgl> <dbl>    <lgl>     <int>
##  1   FALSE     1    FALSE         9
##  2   FALSE     1     TRUE         6
##  3   FALSE     2    FALSE         6
##  4   FALSE     2     TRUE         3
##  5   FALSE     3    FALSE         5
##  6   FALSE     3     TRUE        11
##  7   FALSE     4    FALSE        11
##  8   FALSE     4     TRUE        11
##  9   FALSE     5    FALSE         9
## 10   FALSE     5     TRUE         6
## # ... with 38 more rows
…
Summarize the data to get the total number of accidents, separated by (1) daytime and nighttime and (2) related or unrelated to drunk driving, in each month (in other words, in January, how many daytime accidents were there that were unrelated to drunk driving? How many nighttime accidents that were unrelated to drunk driving? etc.). You can do that with this code:

accident %>%
  filter(state_name == "Colorado") %>%
  group_by(daytime, month, drunk_dr) %>%
  summarize(accidents = n())

## # A tibble: 48 x 4
## # Groups:   daytime, month [?]
##    daytime month drunk_dr accidents
##      <lgl> <dbl>    <lgl>     <int>
##  1   FALSE     1    FALSE         9
##  2   FALSE     1     TRUE         6
##  3   FALSE     2    FALSE         6
##  4   FALSE     2     TRUE         3
##  5   FALSE     3    FALSE         5
##  6   FALSE     3     TRUE        11
##  7   FALSE     4    FALSE        11
##  8   FALSE     4     TRUE        11
##  9   FALSE     5    FALSE         9
## 10   FALSE     5     TRUE         6
## # ... with 38 more rows
…
