Chapter 7 Exploring data #2 | R Programming for Research
…
top_letters <- top_letters %>% 
  group_by(first_letter) %>% 
  summarize(n = sum(n)) %>% 
  ungroup() %>% 
  mutate(prop = n / sum(n)) %>% 
  arrange(desc(prop))

## `summarise()` ungrouping output (override with `.groups` argument)

top_letters

## # A tibble: 26 x 3
##    first_letter        n   prop
##    <chr>           <int>  <dbl>
##  1 J            44612175 0.128 
##  2 M            32864210 0.0944
##  3 A            28855232 0.0829
##  4 C            25533863 0.0733
##  5 D            24240271 0.0696
##  6 R            23702794 0.0681
##  7 S            21373830 0.0614
##  8 L            18942067 0.0544
##  9 E            17033760 0.0489
## 10 K            17006684 0.0489
## # … with 16 more rows
…
library(ggplot2)
library(nycflights13)
data(flights)

So that this data will be easier to work with, remove all columns except for those for
the departure dealy (dep_delay), the carrier (carrier), the hour the flight was
supposed to leave (hour), and the airport the flight left from (origin).

flights <- flights %>% 
  select(dep_delay, carrier, hour, origin) %>% 
  filter(origin == "LGA")

flights

## # A tibble: 104,662 x 4
##    dep_delay carrier  hour origin
##        <dbl> <chr>   <dbl> <chr> 
##  1         4 UA          5 LGA   
##  2        -6 DL          6 LGA   
##  3        -3 EV          6 LGA   
##  4        -2 AA          6 LGA   
##  5        -1 AA          6 LGA   
##  6         0 B6          6 LGA   
##  7         0 MQ          6 LGA   
##  8        -8 DL          6 LGA   
##  9        -3 MQ          6 LGA   
## 10        13 AA          6 LGA   
## # … with 104,652 more rows

Filter out all the rows where the
departure delay is missing and then create a new column called
late_dep that is true if the flight left 15 minutes or more late and false otherwise.

flights <- flights %>% 
  filter(!is.na(dep_delay)) %>% 
  mutate(late_dep = dep_delay > 15)

flights

## # A tibble: 101,509 x 5
##    dep_delay carrier  hour origin late_dep
##        <dbl> <chr>   <dbl> <chr>  <lgl>   
##  1         4 UA          5 LGA    FALSE   
##  2        -6 DL          6 LGA    FALSE   
##  3        -3 EV          6 LGA    FALSE   
##  4        -2 AA          6 LGA    FALSE   
##  5        -1 AA          6 LGA    FALSE   
##  6         0 B6          6 LGA    FALSE   
##  7         0 MQ          6 LGA    FALSE   
##  8        -8 DL          6 LGA    FALSE   
##  9        -3 MQ          6 LGA    FALSE   
## 10        13 AA          6 LGA    FALSE   
## # … with 101,499 more rows
…
In this case, there was a rarer word (“ling”) that counted as a word when the original
word list was used, but not when the Google top-10,000 words list was used.

Try using these functions to solve the word puzzle problem in the last homework.

word_list %>% 
  filter(str_detect(word, "^m.{7}$")) %>%                        # This is using regular expressions
  separate(word, into = c("first_word", "second_word"),          # Note that you can use `separate` with a number to use position
           sep = 4, remove = FALSE) %>%                          
  mutate(second_word = move_letter(second_word)) %>%             # Use the first function here
  filter(is_word(first_word) & is_word(second_word)) %>%         # Use the second function here
  unite("new_word", c("first_word", "second_word"), sep = " ")   # You can use `unite` to put the two new words in a phrase in one column.

## # A tibble: 103 x 2
##    word     new_word 
##    <chr>    <chr>    
##  1 mailings mail sing
##  2 maillots mail slot
##  3 majorate majo erat
##  4 majoring majo grin
##  5 malmiest malm ties
##  6 maltiest malt ties
##  7 mandalas mand sala
##  8 mandated mand date
##  9 mandates mand sate
## 10 mangiest mang ties
## # … with 93 more rows
You can get the choices down to even fewer options if you match the new words against
the Google top-10,000 words list, by using the real_word_list option in the is_word
function you wrote. (However, “maillots” is not a common enough word that you can
also start from that shorter word list!)

word_list %>% 
  filter(str_detect(word, "^m.{7}$")) %>%                        
  separate(word, into = c("first_word", "second_word"),          
           sep = 4, remove = FALSE) %>%                          
  mutate(second_word = move_letter(second_word)) %>%             
  filter(is_word(first_word, real_word_list = google_words) & 
           is_word(second_word, real_word_list = google_words)) %>%         
  unite("new_word", c("first_word", "second_word"), sep = " ")  

## # A tibble: 43 x 2
##    word     new_word 
##    <chr>    <chr>    
##  1 mailings mail sing
##  2 maillots mail slot
##  3 maintops main stop
##  4 markings mark sing
##  5 maskings mask sing
##  6 massager mass rage
##  7 massages mass sage
##  8 massiest mass ties
##  9 mattings matt sing
## 10 mealiest meal ties
## # … with 33 more rows
