Chapter 3 Exploring data #1 | R Programming for Research
…
worldcup %>% 
  filter(Position == "Forward") %>% 
  group_by(Team) %>% 
  summarize(n_forwards = n(),
            total_forward_shots = sum(Shots)) %>% 
  arrange(desc(total_forward_shots))

## `summarise()` ungrouping output (override with `.groups` argument)

## # A tibble: 32 x 3
##    Team        n_forwards total_forward_shots
##    <fct>            <int>               <int>
##  1 Uruguay              5                  46
##  2 Argentina            6                  45
##  3 Germany              6                  41
##  4 Netherlands          5                  34
##  5 Spain                3                  33
##  6 Ghana                5                  32
##  7 Portugal             4                  28
##  8 Paraguay             5                  25
##  9 Brazil               4                  23
## 10 USA                  5                  21
## # … with 22 more rows
…
