R Programming for Research
…
## Parsed with column specification:
## cols(
##   YEAR = col_integer(),
##   GoogleKnowlege_Occupation = col_character(),
##   Show = col_character(),
##   Group = col_character(),
##   Raw_Guest_List = col_character()
## )

# Print out the first few rows
daily_show

## # A tibble: 2,693 x 5
##     YEAR GoogleKnowlege_Occupation Show    Group    Raw_Guest_List  
##    <int> <chr>                     <chr>   <chr>    <chr>           
##  1  1999 actor                     1/11/99 Acting   Michael J. Fox  
##  2  1999 Comedian                  1/12/99 Comedy   Sandra Bernhard 
##  3  1999 television actress        1/13/99 Acting   Tracey Ullman   
##  4  1999 film actress              1/14/99 Acting   Gillian Anderson
##  5  1999 actor                     1/18/99 Acting   David Alan Grier
##  6  1999 actor                     1/19/99 Acting   William Baldwin 
##  7  1999 Singer-lyricist           1/20/99 Musician Michael Stipe   
##  8  1999 model                     1/21/99 Media    Carmen Electra  
##  9  1999 actor                     1/25/99 Acting   Matthew Lillard 
## 10  1999 stand-up comedian         1/26/99 Comedy   David Cross     
## # ... with 2,683 more rows
…
